^C:\Users\Sarah\Documents\CGL\cgl_networking_Assignment\cgl_networking_assignment\cgl_networking_assignment.vcxproj
C:\Users\Sarah\Documents\CGL\cgl_networking_Assignment\x64\Release\cgl_networking_assignment.ipdb
C:\Users\Sarah\Documents\CGL\cgl_networking_Assignment\x64\Release\cgl_networking_assignment.iobj
