^C:\USERS\SARAH\DOCUMENTS\CGL\CGL_NETWORKING_ASSIGNMENT\CGL_NETWORKING_ASSIGNMENT\ANIMATION.CPP
/c /IC:\USERS\SARAH\DOCUMENTS\CGL\CGL_NETWORKING_ASSIGNMENT\CGL_NETWORKING_ASSIGNMENT\INCLUDE /Zi /nologo /W3 /WX- /diagnostics:classic /sdl /O2 /Oi /GL /D _MBCS /Gm- /EHsc /MD /GS /Gy /fp:precise /Zc:wchar_t /Zc:forScope /Zc:inline /Fo"X64\RELEASE\\" /Fd"X64\RELEASE\VC141.PDB" /Gd /TP C:\USERS\SARAH\DOCUMENTS\CGL\CGL_NETWORKING_ASSIGNMENT\CGL_NETWORKING_ASSIGNMENT\ANIMATION.CPP
^C:\USERS\SARAH\DOCUMENTS\CGL\CGL_NETWORKING_ASSIGNMENT\CGL_NETWORKING_ASSIGNMENT\GAMEAPP.CPP
/c /IC:\USERS\SARAH\DOCUMENTS\CGL\CGL_NETWORKING_ASSIGNMENT\CGL_NETWORKING_ASSIGNMENT\INCLUDE /Zi /nologo /W3 /WX- /diagnostics:classic /sdl /O2 /Oi /GL /D _MBCS /Gm- /EHsc /MD /GS /Gy /fp:precise /Zc:wchar_t /Zc:forScope /Zc:inline /Fo"X64\RELEASE\\" /Fd"X64\RELEASE\VC141.PDB" /Gd /TP C:\USERS\SARAH\DOCUMENTS\CGL\CGL_NETWORKING_ASSIGNMENT\CGL_NETWORKING_ASSIGNMENT\GAMEAPP.CPP
^C:\USERS\SARAH\DOCUMENTS\CGL\CGL_NETWORKING_ASSIGNMENT\CGL_NETWORKING_ASSIGNMENT\PAUSEGAME.CPP
/c /IC:\USERS\SARAH\DOCUMENTS\CGL\CGL_NETWORKING_ASSIGNMENT\CGL_NETWORKING_ASSIGNMENT\INCLUDE /Zi /nologo /W3 /WX- /diagnostics:classic /sdl /O2 /Oi /GL /D _MBCS /Gm- /EHsc /MD /GS /Gy /fp:precise /Zc:wchar_t /Zc:forScope /Zc:inline /Fo"X64\RELEASE\\" /Fd"X64\RELEASE\VC141.PDB" /Gd /TP C:\USERS\SARAH\DOCUMENTS\CGL\CGL_NETWORKING_ASSIGNMENT\CGL_NETWORKING_ASSIGNMENT\PAUSEGAME.CPP
^C:\USERS\SARAH\DOCUMENTS\CGL\CGL_NETWORKING_ASSIGNMENT\CGL_NETWORKING_ASSIGNMENT\PLAYER.CPP
/c /IC:\USERS\SARAH\DOCUMENTS\CGL\CGL_NETWORKING_ASSIGNMENT\CGL_NETWORKING_ASSIGNMENT\INCLUDE /Zi /nologo /W3 /WX- /diagnostics:classic /sdl /O2 /Oi /GL /D _MBCS /Gm- /EHsc /MD /GS /Gy /fp:precise /Zc:wchar_t /Zc:forScope /Zc:inline /Fo"X64\RELEASE\\" /Fd"X64\RELEASE\VC141.PDB" /Gd /TP C:\USERS\SARAH\DOCUMENTS\CGL\CGL_NETWORKING_ASSIGNMENT\CGL_NETWORKING_ASSIGNMENT\PLAYER.CPP
^C:\USERS\SARAH\DOCUMENTS\CGL\CGL_NETWORKING_ASSIGNMENT\CGL_NETWORKING_ASSIGNMENT\PROCESSEDTEXTURES.CPP
/c /IC:\USERS\SARAH\DOCUMENTS\CGL\CGL_NETWORKING_ASSIGNMENT\CGL_NETWORKING_ASSIGNMENT\INCLUDE /Zi /nologo /W3 /WX- /diagnostics:classic /sdl /O2 /Oi /GL /D _MBCS /Gm- /EHsc /MD /GS /Gy /fp:precise /Zc:wchar_t /Zc:forScope /Zc:inline /Fo"X64\RELEASE\\" /Fd"X64\RELEASE\VC141.PDB" /Gd /TP C:\USERS\SARAH\DOCUMENTS\CGL\CGL_NETWORKING_ASSIGNMENT\CGL_NETWORKING_ASSIGNMENT\PROCESSEDTEXTURES.CPP
^C:\USERS\SARAH\DOCUMENTS\CGL\CGL_NETWORKING_ASSIGNMENT\CGL_NETWORKING_ASSIGNMENT\MENUBUTTONS.CPP
/c /IC:\USERS\SARAH\DOCUMENTS\CGL\CGL_NETWORKING_ASSIGNMENT\CGL_NETWORKING_ASSIGNMENT\INCLUDE /Zi /nologo /W3 /WX- /diagnostics:classic /sdl /O2 /Oi /GL /D _MBCS /Gm- /EHsc /MD /GS /Gy /fp:precise /Zc:wchar_t /Zc:forScope /Zc:inline /Fo"X64\RELEASE\\" /Fd"X64\RELEASE\VC141.PDB" /Gd /TP C:\USERS\SARAH\DOCUMENTS\CGL\CGL_NETWORKING_ASSIGNMENT\CGL_NETWORKING_ASSIGNMENT\MENUBUTTONS.CPP
^C:\USERS\SARAH\DOCUMENTS\CGL\CGL_NETWORKING_ASSIGNMENT\CGL_NETWORKING_ASSIGNMENT\COMMAND.CPP
/c /IC:\USERS\SARAH\DOCUMENTS\CGL\CGL_NETWORKING_ASSIGNMENT\CGL_NETWORKING_ASSIGNMENT\INCLUDE /Zi /nologo /W3 /WX- /diagnostics:classic /sdl /O2 /Oi /GL /D _MBCS /Gm- /EHsc /MD /GS /Gy /fp:precise /Zc:wchar_t /Zc:forScope /Zc:inline /Fo"X64\RELEASE\\" /Fd"X64\RELEASE\VC141.PDB" /Gd /TP C:\USERS\SARAH\DOCUMENTS\CGL\CGL_NETWORKING_ASSIGNMENT\CGL_NETWORKING_ASSIGNMENT\COMMAND.CPP
^C:\USERS\SARAH\DOCUMENTS\CGL\CGL_NETWORKING_ASSIGNMENT\CGL_NETWORKING_ASSIGNMENT\COMMANDQUEUE.CPP
/c /IC:\USERS\SARAH\DOCUMENTS\CGL\CGL_NETWORKING_ASSIGNMENT\CGL_NETWORKING_ASSIGNMENT\INCLUDE /Zi /nologo /W3 /WX- /diagnostics:classic /sdl /O2 /Oi /GL /D _MBCS /Gm- /EHsc /MD /GS /Gy /fp:precise /Zc:wchar_t /Zc:forScope /Zc:inline /Fo"X64\RELEASE\\" /Fd"X64\RELEASE\VC141.PDB" /Gd /TP C:\USERS\SARAH\DOCUMENTS\CGL\CGL_NETWORKING_ASSIGNMENT\CGL_NETWORKING_ASSIGNMENT\COMMANDQUEUE.CPP
^C:\USERS\SARAH\DOCUMENTS\CGL\CGL_NETWORKING_ASSIGNMENT\CGL_NETWORKING_ASSIGNMENT\COMPONENT.CPP
/c /IC:\USERS\SARAH\DOCUMENTS\CGL\CGL_NETWORKING_ASSIGNMENT\CGL_NETWORKING_ASSIGNMENT\INCLUDE /Zi /nologo /W3 /WX- /diagnostics:classic /sdl /O2 /Oi /GL /D _MBCS /Gm- /EHsc /MD /GS /Gy /fp:precise /Zc:wchar_t /Zc:forScope /Zc:inline /Fo"X64\RELEASE\\" /Fd"X64\RELEASE\VC141.PDB" /Gd /TP C:\USERS\SARAH\DOCUMENTS\CGL\CGL_NETWORKING_ASSIGNMENT\CGL_NETWORKING_ASSIGNMENT\COMPONENT.CPP
^C:\USERS\SARAH\DOCUMENTS\CGL\CGL_NETWORKING_ASSIGNMENT\CGL_NETWORKING_ASSIGNMENT\CONTAINER.CPP
/c /IC:\USERS\SARAH\DOCUMENTS\CGL\CGL_NETWORKING_ASSIGNMENT\CGL_NETWORKING_ASSIGNMENT\INCLUDE /Zi /nologo /W3 /WX- /diagnostics:classic /sdl /O2 /Oi /GL /D _MBCS /Gm- /EHsc /MD /GS /Gy /fp:precise /Zc:wchar_t /Zc:forScope /Zc:inline /Fo"X64\RELEASE\\" /Fd"X64\RELEASE\VC141.PDB" /Gd /TP C:\USERS\SARAH\DOCUMENTS\CGL\CGL_NETWORKING_ASSIGNMENT\CGL_NETWORKING_ASSIGNMENT\CONTAINER.CPP
^C:\USERS\SARAH\DOCUMENTS\CGL\CGL_NETWORKING_ASSIGNMENT\CGL_NETWORKING_ASSIGNMENT\DATATABLES.CPP
/c /IC:\USERS\SARAH\DOCUMENTS\CGL\CGL_NETWORKING_ASSIGNMENT\CGL_NETWORKING_ASSIGNMENT\INCLUDE /Zi /nologo /W3 /WX- /diagnostics:classic /sdl /O2 /Oi /GL /D _MBCS /Gm- /EHsc /MD /GS /Gy /fp:precise /Zc:wchar_t /Zc:forScope /Zc:inline /Fo"X64\RELEASE\\" /Fd"X64\RELEASE\VC141.PDB" /Gd /TP C:\USERS\SARAH\DOCUMENTS\CGL\CGL_NETWORKING_ASSIGNMENT\CGL_NETWORKING_ASSIGNMENT\DATATABLES.CPP
^C:\USERS\SARAH\DOCUMENTS\CGL\CGL_NETWORKING_ASSIGNMENT\CGL_NETWORKING_ASSIGNMENT\ENTITY.CPP
/c /IC:\USERS\SARAH\DOCUMENTS\CGL\CGL_NETWORKING_ASSIGNMENT\CGL_NETWORKING_ASSIGNMENT\INCLUDE /Zi /nologo /W3 /WX- /diagnostics:classic /sdl /O2 /Oi /GL /D _MBCS /Gm- /EHsc /MD /GS /Gy /fp:precise /Zc:wchar_t /Zc:forScope /Zc:inline /Fo"X64\RELEASE\\" /Fd"X64\RELEASE\VC141.PDB" /Gd /TP C:\USERS\SARAH\DOCUMENTS\CGL\CGL_NETWORKING_ASSIGNMENT\CGL_NETWORKING_ASSIGNMENT\ENTITY.CPP
^C:\USERS\SARAH\DOCUMENTS\CGL\CGL_NETWORKING_ASSIGNMENT\CGL_NETWORKING_ASSIGNMENT\GAMEOVERSTATE.CPP
/c /IC:\USERS\SARAH\DOCUMENTS\CGL\CGL_NETWORKING_ASSIGNMENT\CGL_NETWORKING_ASSIGNMENT\INCLUDE /Zi /nologo /W3 /WX- /diagnostics:classic /sdl /O2 /Oi /GL /D _MBCS /Gm- /EHsc /MD /GS /Gy /fp:precise /Zc:wchar_t /Zc:forScope /Zc:inline /Fo"X64\RELEASE\\" /Fd"X64\RELEASE\VC141.PDB" /Gd /TP C:\USERS\SARAH\DOCUMENTS\CGL\CGL_NETWORKING_ASSIGNMENT\CGL_NETWORKING_ASSIGNMENT\GAMEOVERSTATE.CPP
^C:\USERS\SARAH\DOCUMENTS\CGL\CGL_NETWORKING_ASSIGNMENT\CGL_NETWORKING_ASSIGNMENT\GAMESERVER.CPP
/c /IC:\USERS\SARAH\DOCUMENTS\CGL\CGL_NETWORKING_ASSIGNMENT\CGL_NETWORKING_ASSIGNMENT\INCLUDE /Zi /nologo /W3 /WX- /diagnostics:classic /sdl /O2 /Oi /GL /D _MBCS /Gm- /EHsc /MD /GS /Gy /fp:precise /Zc:wchar_t /Zc:forScope /Zc:inline /Fo"X64\RELEASE\\" /Fd"X64\RELEASE\VC141.PDB" /Gd /TP C:\USERS\SARAH\DOCUMENTS\CGL\CGL_NETWORKING_ASSIGNMENT\CGL_NETWORKING_ASSIGNMENT\GAMESERVER.CPP
^C:\USERS\SARAH\DOCUMENTS\CGL\CGL_NETWORKING_ASSIGNMENT\CGL_NETWORKING_ASSIGNMENT\GAMESTATE.CPP
/c /IC:\USERS\SARAH\DOCUMENTS\CGL\CGL_NETWORKING_ASSIGNMENT\CGL_NETWORKING_ASSIGNMENT\INCLUDE /Zi /nologo /W3 /WX- /diagnostics:classic /sdl /O2 /Oi /GL /D _MBCS /Gm- /EHsc /MD /GS /Gy /fp:precise /Zc:wchar_t /Zc:forScope /Zc:inline /Fo"X64\RELEASE\\" /Fd"X64\RELEASE\VC141.PDB" /Gd /TP C:\USERS\SARAH\DOCUMENTS\CGL\CGL_NETWORKING_ASSIGNMENT\CGL_NETWORKING_ASSIGNMENT\GAMESTATE.CPP
^C:\USERS\SARAH\DOCUMENTS\CGL\CGL_NETWORKING_ASSIGNMENT\CGL_NETWORKING_ASSIGNMENT\KEYBINDING.CPP
/c /IC:\USERS\SARAH\DOCUMENTS\CGL\CGL_NETWORKING_ASSIGNMENT\CGL_NETWORKING_ASSIGNMENT\INCLUDE /Zi /nologo /W3 /WX- /diagnostics:classic /sdl /O2 /Oi /GL /D _MBCS /Gm- /EHsc /MD /GS /Gy /fp:precise /Zc:wchar_t /Zc:forScope /Zc:inline /Fo"X64\RELEASE\\" /Fd"X64\RELEASE\VC141.PDB" /Gd /TP C:\USERS\SARAH\DOCUMENTS\CGL\CGL_NETWORKING_ASSIGNMENT\CGL_NETWORKING_ASSIGNMENT\KEYBINDING.CPP
^C:\USERS\SARAH\DOCUMENTS\CGL\CGL_NETWORKING_ASSIGNMENT\CGL_NETWORKING_ASSIGNMENT\MAIN.CPP
/c /IC:\USERS\SARAH\DOCUMENTS\CGL\CGL_NETWORKING_ASSIGNMENT\CGL_NETWORKING_ASSIGNMENT\INCLUDE /Zi /nologo /W3 /WX- /diagnostics:classic /sdl /O2 /Oi /GL /D _MBCS /Gm- /EHsc /MD /GS /Gy /fp:precise /Zc:wchar_t /Zc:forScope /Zc:inline /Fo"X64\RELEASE\\" /Fd"X64\RELEASE\VC141.PDB" /Gd /TP C:\USERS\SARAH\DOCUMENTS\CGL\CGL_NETWORKING_ASSIGNMENT\CGL_NETWORKING_ASSIGNMENT\MAIN.CPP
^C:\USERS\SARAH\DOCUMENTS\CGL\CGL_NETWORKING_ASSIGNMENT\CGL_NETWORKING_ASSIGNMENT\MENUSTATE.CPP
/c /IC:\USERS\SARAH\DOCUMENTS\CGL\CGL_NETWORKING_ASSIGNMENT\CGL_NETWORKING_ASSIGNMENT\INCLUDE /Zi /nologo /W3 /WX- /diagnostics:classic /sdl /O2 /Oi /GL /D _MBCS /Gm- /EHsc /MD /GS /Gy /fp:precise /Zc:wchar_t /Zc:forScope /Zc:inline /Fo"X64\RELEASE\\" /Fd"X64\RELEASE\VC141.PDB" /Gd /TP C:\USERS\SARAH\DOCUMENTS\CGL\CGL_NETWORKING_ASSIGNMENT\CGL_NETWORKING_ASSIGNMENT\MENUSTATE.CPP
^C:\USERS\SARAH\DOCUMENTS\CGL\CGL_NETWORKING_ASSIGNMENT\CGL_NETWORKING_ASSIGNMENT\MULTIPLAYERGAMESTATE.CPP
/c /IC:\USERS\SARAH\DOCUMENTS\CGL\CGL_NETWORKING_ASSIGNMENT\CGL_NETWORKING_ASSIGNMENT\INCLUDE /Zi /nologo /W3 /WX- /diagnostics:classic /sdl /O2 /Oi /GL /D _MBCS /Gm- /EHsc /MD /GS /Gy /fp:precise /Zc:wchar_t /Zc:forScope /Zc:inline /Fo"X64\RELEASE\\" /Fd"X64\RELEASE\VC141.PDB" /Gd /TP C:\USERS\SARAH\DOCUMENTS\CGL\CGL_NETWORKING_ASSIGNMENT\CGL_NETWORKING_ASSIGNMENT\MULTIPLAYERGAMESTATE.CPP
^C:\USERS\SARAH\DOCUMENTS\CGL\CGL_NETWORKING_ASSIGNMENT\CGL_NETWORKING_ASSIGNMENT\NETWORKNODE.CPP
/c /IC:\USERS\SARAH\DOCUMENTS\CGL\CGL_NETWORKING_ASSIGNMENT\CGL_NETWORKING_ASSIGNMENT\INCLUDE /Zi /nologo /W3 /WX- /diagnostics:classic /sdl /O2 /Oi /GL /D _MBCS /Gm- /EHsc /MD /GS /Gy /fp:precise /Zc:wchar_t /Zc:forScope /Zc:inline /Fo"X64\RELEASE\\" /Fd"X64\RELEASE\VC141.PDB" /Gd /TP C:\USERS\SARAH\DOCUMENTS\CGL\CGL_NETWORKING_ASSIGNMENT\CGL_NETWORKING_ASSIGNMENT\NETWORKNODE.CPP
^C:\USERS\SARAH\DOCUMENTS\CGL\CGL_NETWORKING_ASSIGNMENT\CGL_NETWORKING_ASSIGNMENT\WORLDNODE.CPP
/c /IC:\USERS\SARAH\DOCUMENTS\CGL\CGL_NETWORKING_ASSIGNMENT\CGL_NETWORKING_ASSIGNMENT\INCLUDE /Zi /nologo /W3 /WX- /diagnostics:classic /sdl /O2 /Oi /GL /D _MBCS /Gm- /EHsc /MD /GS /Gy /fp:precise /Zc:wchar_t /Zc:forScope /Zc:inline /Fo"X64\RELEASE\\" /Fd"X64\RELEASE\VC141.PDB" /Gd /TP C:\USERS\SARAH\DOCUMENTS\CGL\CGL_NETWORKING_ASSIGNMENT\CGL_NETWORKING_ASSIGNMENT\WORLDNODE.CPP
^C:\USERS\SARAH\DOCUMENTS\CGL\CGL_NETWORKING_ASSIGNMENT\CGL_NETWORKING_ASSIGNMENT\BALL.CPP
/c /IC:\USERS\SARAH\DOCUMENTS\CGL\CGL_NETWORKING_ASSIGNMENT\CGL_NETWORKING_ASSIGNMENT\INCLUDE /Zi /nologo /W3 /WX- /diagnostics:classic /sdl /O2 /Oi /GL /D _MBCS /Gm- /EHsc /MD /GS /Gy /fp:precise /Zc:wchar_t /Zc:forScope /Zc:inline /Fo"X64\RELEASE\\" /Fd"X64\RELEASE\VC141.PDB" /Gd /TP C:\USERS\SARAH\DOCUMENTS\CGL\CGL_NETWORKING_ASSIGNMENT\CGL_NETWORKING_ASSIGNMENT\BALL.CPP
^C:\USERS\SARAH\DOCUMENTS\CGL\CGL_NETWORKING_ASSIGNMENT\CGL_NETWORKING_ASSIGNMENT\PLAYERPAWN.CPP
/c /IC:\USERS\SARAH\DOCUMENTS\CGL\CGL_NETWORKING_ASSIGNMENT\CGL_NETWORKING_ASSIGNMENT\INCLUDE /Zi /nologo /W3 /WX- /diagnostics:classic /sdl /O2 /Oi /GL /D _MBCS /Gm- /EHsc /MD /GS /Gy /fp:precise /Zc:wchar_t /Zc:forScope /Zc:inline /Fo"X64\RELEASE\\" /Fd"X64\RELEASE\VC141.PDB" /Gd /TP C:\USERS\SARAH\DOCUMENTS\CGL\CGL_NETWORKING_ASSIGNMENT\CGL_NETWORKING_ASSIGNMENT\PLAYERPAWN.CPP
^C:\USERS\SARAH\DOCUMENTS\CGL\CGL_NETWORKING_ASSIGNMENT\CGL_NETWORKING_ASSIGNMENT\SPRITENODE.CPP
/c /IC:\USERS\SARAH\DOCUMENTS\CGL\CGL_NETWORKING_ASSIGNMENT\CGL_NETWORKING_ASSIGNMENT\INCLUDE /Zi /nologo /W3 /WX- /diagnostics:classic /sdl /O2 /Oi /GL /D _MBCS /Gm- /EHsc /MD /GS /Gy /fp:precise /Zc:wchar_t /Zc:forScope /Zc:inline /Fo"X64\RELEASE\\" /Fd"X64\RELEASE\VC141.PDB" /Gd /TP C:\USERS\SARAH\DOCUMENTS\CGL\CGL_NETWORKING_ASSIGNMENT\CGL_NETWORKING_ASSIGNMENT\SPRITENODE.CPP
^C:\USERS\SARAH\DOCUMENTS\CGL\CGL_NETWORKING_ASSIGNMENT\CGL_NETWORKING_ASSIGNMENT\STATE.CPP
/c /IC:\USERS\SARAH\DOCUMENTS\CGL\CGL_NETWORKING_ASSIGNMENT\CGL_NETWORKING_ASSIGNMENT\INCLUDE /Zi /nologo /W3 /WX- /diagnostics:classic /sdl /O2 /Oi /GL /D _MBCS /Gm- /EHsc /MD /GS /Gy /fp:precise /Zc:wchar_t /Zc:forScope /Zc:inline /Fo"X64\RELEASE\\" /Fd"X64\RELEASE\VC141.PDB" /Gd /TP C:\USERS\SARAH\DOCUMENTS\CGL\CGL_NETWORKING_ASSIGNMENT\CGL_NETWORKING_ASSIGNMENT\STATE.CPP
^C:\USERS\SARAH\DOCUMENTS\CGL\CGL_NETWORKING_ASSIGNMENT\CGL_NETWORKING_ASSIGNMENT\STATESTACK.CPP
/c /IC:\USERS\SARAH\DOCUMENTS\CGL\CGL_NETWORKING_ASSIGNMENT\CGL_NETWORKING_ASSIGNMENT\INCLUDE /Zi /nologo /W3 /WX- /diagnostics:classic /sdl /O2 /Oi /GL /D _MBCS /Gm- /EHsc /MD /GS /Gy /fp:precise /Zc:wchar_t /Zc:forScope /Zc:inline /Fo"X64\RELEASE\\" /Fd"X64\RELEASE\VC141.PDB" /Gd /TP C:\USERS\SARAH\DOCUMENTS\CGL\CGL_NETWORKING_ASSIGNMENT\CGL_NETWORKING_ASSIGNMENT\STATESTACK.CPP
^C:\USERS\SARAH\DOCUMENTS\CGL\CGL_NETWORKING_ASSIGNMENT\CGL_NETWORKING_ASSIGNMENT\TEXTNODE.CPP
/c /IC:\USERS\SARAH\DOCUMENTS\CGL\CGL_NETWORKING_ASSIGNMENT\CGL_NETWORKING_ASSIGNMENT\INCLUDE /Zi /nologo /W3 /WX- /diagnostics:classic /sdl /O2 /Oi /GL /D _MBCS /Gm- /EHsc /MD /GS /Gy /fp:precise /Zc:wchar_t /Zc:forScope /Zc:inline /Fo"X64\RELEASE\\" /Fd"X64\RELEASE\VC141.PDB" /Gd /TP C:\USERS\SARAH\DOCUMENTS\CGL\CGL_NETWORKING_ASSIGNMENT\CGL_NETWORKING_ASSIGNMENT\TEXTNODE.CPP
^C:\USERS\SARAH\DOCUMENTS\CGL\CGL_NETWORKING_ASSIGNMENT\CGL_NETWORKING_ASSIGNMENT\TITLESTATE.CPP
/c /IC:\USERS\SARAH\DOCUMENTS\CGL\CGL_NETWORKING_ASSIGNMENT\CGL_NETWORKING_ASSIGNMENT\INCLUDE /Zi /nologo /W3 /WX- /diagnostics:classic /sdl /O2 /Oi /GL /D _MBCS /Gm- /EHsc /MD /GS /Gy /fp:precise /Zc:wchar_t /Zc:forScope /Zc:inline /Fo"X64\RELEASE\\" /Fd"X64\RELEASE\VC141.PDB" /Gd /TP C:\USERS\SARAH\DOCUMENTS\CGL\CGL_NETWORKING_ASSIGNMENT\CGL_NETWORKING_ASSIGNMENT\TITLESTATE.CPP
^C:\USERS\SARAH\DOCUMENTS\CGL\CGL_NETWORKING_ASSIGNMENT\CGL_NETWORKING_ASSIGNMENT\UTILITY.CPP
/c /IC:\USERS\SARAH\DOCUMENTS\CGL\CGL_NETWORKING_ASSIGNMENT\CGL_NETWORKING_ASSIGNMENT\INCLUDE /Zi /nologo /W3 /WX- /diagnostics:classic /sdl /O2 /Oi /GL /D _MBCS /Gm- /EHsc /MD /GS /Gy /fp:precise /Zc:wchar_t /Zc:forScope /Zc:inline /Fo"X64\RELEASE\\" /Fd"X64\RELEASE\VC141.PDB" /Gd /TP C:\USERS\SARAH\DOCUMENTS\CGL\CGL_NETWORKING_ASSIGNMENT\CGL_NETWORKING_ASSIGNMENT\UTILITY.CPP
^C:\USERS\SARAH\DOCUMENTS\CGL\CGL_NETWORKING_ASSIGNMENT\CGL_NETWORKING_ASSIGNMENT\GAMEFIELD.CPP
/c /IC:\USERS\SARAH\DOCUMENTS\CGL\CGL_NETWORKING_ASSIGNMENT\CGL_NETWORKING_ASSIGNMENT\INCLUDE /Zi /nologo /W3 /WX- /diagnostics:classic /sdl /O2 /Oi /GL /D _MBCS /Gm- /EHsc /MD /GS /Gy /fp:precise /Zc:wchar_t /Zc:forScope /Zc:inline /Fo"X64\RELEASE\\" /Fd"X64\RELEASE\VC141.PDB" /Gd /TP C:\USERS\SARAH\DOCUMENTS\CGL\CGL_NETWORKING_ASSIGNMENT\CGL_NETWORKING_ASSIGNMENT\GAMEFIELD.CPP
