^C:\USERS\SARAH\DOCUMENTS\CGL\CGL_NETWORKING_ASSIGNMENT\CGL_NETWORKING_ASSIGNMENT\X64\RELEASE\ANIMATION.OBJ|C:\USERS\SARAH\DOCUMENTS\CGL\CGL_NETWORKING_ASSIGNMENT\CGL_NETWORKING_ASSIGNMENT\X64\RELEASE\BALL.OBJ|C:\USERS\SARAH\DOCUMENTS\CGL\CGL_NETWORKING_ASSIGNMENT\CGL_NETWORKING_ASSIGNMENT\X64\RELEASE\COMMAND.OBJ|C:\USERS\SARAH\DOCUMENTS\CGL\CGL_NETWORKING_ASSIGNMENT\CGL_NETWORKING_ASSIGNMENT\X64\RELEASE\COMMANDQUEUE.OBJ|C:\USERS\SARAH\DOCUMENTS\CGL\CGL_NETWORKING_ASSIGNMENT\CGL_NETWORKING_ASSIGNMENT\X64\RELEASE\COMPONENT.OBJ|C:\USERS\SARAH\DOCUMENTS\CGL\CGL_NETWORKING_ASSIGNMENT\CGL_NETWORKING_ASSIGNMENT\X64\RELEASE\CONTAINER.OBJ|C:\USERS\SARAH\DOCUMENTS\CGL\CGL_NETWORKING_ASSIGNMENT\CGL_NETWORKING_ASSIGNMENT\X64\RELEASE\DATATABLES.OBJ|C:\USERS\SARAH\DOCUMENTS\CGL\CGL_NETWORKING_ASSIGNMENT\CGL_NETWORKING_ASSIGNMENT\X64\RELEASE\ENTITY.OBJ|C:\USERS\SARAH\DOCUMENTS\CGL\CGL_NETWORKING_ASSIGNMENT\CGL_NETWORKING_ASSIGNMENT\X64\RELEASE\GAMEAPP.OBJ|C:\USERS\SARAH\DOCUMENTS\CGL\CGL_NETWORKING_ASSIGNMENT\CGL_NETWORKING_ASSIGNMENT\X64\RELEASE\GAMEFIELD.OBJ|C:\USERS\SARAH\DOCUMENTS\CGL\CGL_NETWORKING_ASSIGNMENT\CGL_NETWORKING_ASSIGNMENT\X64\RELEASE\GAMEOVERSTATE.OBJ|C:\USERS\SARAH\DOCUMENTS\CGL\CGL_NETWORKING_ASSIGNMENT\CGL_NETWORKING_ASSIGNMENT\X64\RELEASE\GAMESERVER.OBJ|C:\USERS\SARAH\DOCUMENTS\CGL\CGL_NETWORKING_ASSIGNMENT\CGL_NETWORKING_ASSIGNMENT\X64\RELEASE\GAMESTATE.OBJ|C:\USERS\SARAH\DOCUMENTS\CGL\CGL_NETWORKING_ASSIGNMENT\CGL_NETWORKING_ASSIGNMENT\X64\RELEASE\KEYBINDING.OBJ|C:\USERS\SARAH\DOCUMENTS\CGL\CGL_NETWORKING_ASSIGNMENT\CGL_NETWORKING_ASSIGNMENT\X64\RELEASE\MAIN.OBJ|C:\USERS\SARAH\DOCUMENTS\CGL\CGL_NETWORKING_ASSIGNMENT\CGL_NETWORKING_ASSIGNMENT\X64\RELEASE\MENUBUTTONS.OBJ|C:\USERS\SARAH\DOCUMENTS\CGL\CGL_NETWORKING_ASSIGNMENT\CGL_NETWORKING_ASSIGNMENT\X64\RELEASE\MENUSTATE.OBJ|C:\USERS\SARAH\DOCUMENTS\CGL\CGL_NETWORKING_ASSIGNMENT\CGL_NETWORKING_ASSIGNMENT\X64\RELEASE\MULTIPLAYERGAMESTATE.OBJ|C:\USERS\SARAH\DOCUMENTS\CGL\CGL_NETWORKING_ASSIGNMENT\CGL_NETWORKING_ASSIGNMENT\X64\RELEASE\NETWORKNODE.OBJ|C:\USERS\SARAH\DOCUMENTS\CGL\CGL_NETWORKING_ASSIGNMENT\CGL_NETWORKING_ASSIGNMENT\X64\RELEASE\PAUSEGAME.OBJ|C:\USERS\SARAH\DOCUMENTS\CGL\CGL_NETWORKING_ASSIGNMENT\CGL_NETWORKING_ASSIGNMENT\X64\RELEASE\PLAYER.OBJ|C:\USERS\SARAH\DOCUMENTS\CGL\CGL_NETWORKING_ASSIGNMENT\CGL_NETWORKING_ASSIGNMENT\X64\RELEASE\PLAYERPAWN.OBJ|C:\USERS\SARAH\DOCUMENTS\CGL\CGL_NETWORKING_ASSIGNMENT\CGL_NETWORKING_ASSIGNMENT\X64\RELEASE\PROCESSEDTEXTURES.OBJ|C:\USERS\SARAH\DOCUMENTS\CGL\CGL_NETWORKING_ASSIGNMENT\CGL_NETWORKING_ASSIGNMENT\X64\RELEASE\SPRITENODE.OBJ|C:\USERS\SARAH\DOCUMENTS\CGL\CGL_NETWORKING_ASSIGNMENT\CGL_NETWORKING_ASSIGNMENT\X64\RELEASE\STATE.OBJ|C:\USERS\SARAH\DOCUMENTS\CGL\CGL_NETWORKING_ASSIGNMENT\CGL_NETWORKING_ASSIGNMENT\X64\RELEASE\STATESTACK.OBJ|C:\USERS\SARAH\DOCUMENTS\CGL\CGL_NETWORKING_ASSIGNMENT\CGL_NETWORKING_ASSIGNMENT\X64\RELEASE\TEXTNODE.OBJ|C:\USERS\SARAH\DOCUMENTS\CGL\CGL_NETWORKING_ASSIGNMENT\CGL_NETWORKING_ASSIGNMENT\X64\RELEASE\TITLESTATE.OBJ|C:\USERS\SARAH\DOCUMENTS\CGL\CGL_NETWORKING_ASSIGNMENT\CGL_NETWORKING_ASSIGNMENT\X64\RELEASE\UTILITY.OBJ|C:\USERS\SARAH\DOCUMENTS\CGL\CGL_NETWORKING_ASSIGNMENT\CGL_NETWORKING_ASSIGNMENT\X64\RELEASE\WORLDNODE.OBJ
C:\USERS\SARAH\DOCUMENTS\CGL\CGL_NETWORKING_ASSIGNMENT\X64\RELEASE\CGL_NETWORKING_ASSIGNMENT.EXE
C:\USERS\SARAH\DOCUMENTS\CGL\CGL_NETWORKING_ASSIGNMENT\X64\RELEASE\CGL_NETWORKING_ASSIGNMENT.PDB
